[
  {
    "cmd": [
      "python",
      "-u",
      "\nimport sys, os\npath = sys.argv[1]\nmode = int(sys.argv[2])\nif not os.path.isdir(path):\n  if os.path.exists(path):\n    print \"%s exists but is not a dir\" % path\n    sys.exit(1)\n  os.makedirs(path, mode)\n",
      "[BUILDER_CACHE]\\V8_Blink_Win",
      "511"
    ],
    "name": "makedirs checkout path",
    "~followup_annotations": [
      "@@@STEP_LOG_LINE@python.inline@@@@",
      "@@@STEP_LOG_LINE@python.inline@import sys, os@@@",
      "@@@STEP_LOG_LINE@python.inline@path = sys.argv[1]@@@",
      "@@@STEP_LOG_LINE@python.inline@mode = int(sys.argv[2])@@@",
      "@@@STEP_LOG_LINE@python.inline@if not os.path.isdir(path):@@@",
      "@@@STEP_LOG_LINE@python.inline@  if os.path.exists(path):@@@",
      "@@@STEP_LOG_LINE@python.inline@    print \"%s exists but is not a dir\" % path@@@",
      "@@@STEP_LOG_LINE@python.inline@    sys.exit(1)@@@",
      "@@@STEP_LOG_LINE@python.inline@  os.makedirs(path, mode)@@@",
      "@@@STEP_LOG_END@python.inline@@@"
    ]
  },
  {
    "cmd": [
      "python",
      "-u",
      "RECIPE_MODULE[depot_tools::bot_update]\\resources\\bot_update.py",
      "--spec",
      "cache_dir = '[GIT_CACHE]'\nsolutions = [{'deps_file': '.DEPS.git', 'managed': True, 'name': 'src', 'url': 'https://chromium.googlesource.com/chromium/src.git'}]",
      "--patch_root",
      "src",
      "--revision_mapping_file",
      "{\"src\": \"got_cr_revision\", \"src/buildtools\": \"got_buildtools_revision\", \"src/native_client\": \"got_nacl_revision\", \"src/third_party/angle\": \"got_angle_revision\", \"src/third_party/webrtc\": \"got_webrtc_revision\", \"src/tools/swarming_client\": \"got_swarming_client_revision\", \"src/v8\": \"got_revision\"}",
      "--git-cache-dir",
      "[GIT_CACHE]",
      "--output_json",
      "/path/to/tmp/json",
      "--revision",
      "src@HEAD",
      "--revision",
      "src/v8@20123",
      "--output_manifest"
    ],
    "cwd": "[BUILDER_CACHE]\\V8_Blink_Win",
    "env": {
      "PATH": "%(PATH)s;RECIPE_PACKAGE_REPO[depot_tools]"
    },
    "name": "bot_update",
    "~followup_annotations": [
      "@@@STEP_TEXT@Some step text@@@",
      "@@@STEP_LOG_LINE@json.output@{@@@",
      "@@@STEP_LOG_LINE@json.output@  \"did_run\": true, @@@",
      "@@@STEP_LOG_LINE@json.output@  \"fixed_revisions\": {@@@",
      "@@@STEP_LOG_LINE@json.output@    \"src\": \"HEAD\", @@@",
      "@@@STEP_LOG_LINE@json.output@    \"src/v8\": \"20123\"@@@",
      "@@@STEP_LOG_LINE@json.output@  }, @@@",
      "@@@STEP_LOG_LINE@json.output@  \"manifest\": {@@@",
      "@@@STEP_LOG_LINE@json.output@    \"src\": {@@@",
      "@@@STEP_LOG_LINE@json.output@      \"repository\": \"https://fake.org/src.git\", @@@",
      "@@@STEP_LOG_LINE@json.output@      \"revision\": \"f27fede2220bcd326aee3e86ddfd4ebd0fe58cb9\"@@@",
      "@@@STEP_LOG_LINE@json.output@    }, @@@",
      "@@@STEP_LOG_LINE@json.output@    \"src/buildtools\": {@@@",
      "@@@STEP_LOG_LINE@json.output@      \"repository\": \"https://fake.org/src/buildtools.git\", @@@",
      "@@@STEP_LOG_LINE@json.output@      \"revision\": \"f0319a328b2809876916353cb994259692140934\"@@@",
      "@@@STEP_LOG_LINE@json.output@    }, @@@",
      "@@@STEP_LOG_LINE@json.output@    \"src/native_client\": {@@@",
      "@@@STEP_LOG_LINE@json.output@      \"repository\": \"https://fake.org/src/native_client.git\", @@@",
      "@@@STEP_LOG_LINE@json.output@      \"revision\": \"d998e125e8253980d76e269b7982aeeefc1b9b50\"@@@",
      "@@@STEP_LOG_LINE@json.output@    }, @@@",
      "@@@STEP_LOG_LINE@json.output@    \"src/third_party/angle\": {@@@",
      "@@@STEP_LOG_LINE@json.output@      \"repository\": \"https://fake.org/src/third_party/angle.git\", @@@",
      "@@@STEP_LOG_LINE@json.output@      \"revision\": \"fac9503c46405f77757b9a728eb85b8d7bc6080c\"@@@",
      "@@@STEP_LOG_LINE@json.output@    }, @@@",
      "@@@STEP_LOG_LINE@json.output@    \"src/third_party/webrtc\": {@@@",
      "@@@STEP_LOG_LINE@json.output@      \"repository\": \"https://fake.org/src/third_party/webrtc.git\", @@@",
      "@@@STEP_LOG_LINE@json.output@      \"revision\": \"0f90628433546e61d9268596da93418c623137f4\"@@@",
      "@@@STEP_LOG_LINE@json.output@    }, @@@",
      "@@@STEP_LOG_LINE@json.output@    \"src/tools/swarming_client\": {@@@",
      "@@@STEP_LOG_LINE@json.output@      \"repository\": \"https://fake.org/src/tools/swarming_client.git\", @@@",
      "@@@STEP_LOG_LINE@json.output@      \"revision\": \"a0ee5d99f1d4b38ddaa4c759c837980b63b99566\"@@@",
      "@@@STEP_LOG_LINE@json.output@    }, @@@",
      "@@@STEP_LOG_LINE@json.output@    \"src/v8\": {@@@",
      "@@@STEP_LOG_LINE@json.output@      \"repository\": \"https://fake.org/src/v8.git\", @@@",
      "@@@STEP_LOG_LINE@json.output@      \"revision\": \"801ada225ddc271c132c3a35f03975671d43e399\"@@@",
      "@@@STEP_LOG_LINE@json.output@    }@@@",
      "@@@STEP_LOG_LINE@json.output@  }, @@@",
      "@@@STEP_LOG_LINE@json.output@  \"patch_failure\": false, @@@",
      "@@@STEP_LOG_LINE@json.output@  \"patch_root\": \"src\", @@@",
      "@@@STEP_LOG_LINE@json.output@  \"properties\": {@@@",
      "@@@STEP_LOG_LINE@json.output@    \"got_angle_revision\": \"fac9503c46405f77757b9a728eb85b8d7bc6080c\", @@@",
      "@@@STEP_LOG_LINE@json.output@    \"got_angle_revision_cp\": \"refs/heads/master@{#297276}\", @@@",
      "@@@STEP_LOG_LINE@json.output@    \"got_buildtools_revision\": \"f0319a328b2809876916353cb994259692140934\", @@@",
      "@@@STEP_LOG_LINE@json.output@    \"got_buildtools_revision_cp\": \"refs/heads/master@{#182578}\", @@@",
      "@@@STEP_LOG_LINE@json.output@    \"got_cr_revision\": \"f27fede2220bcd326aee3e86ddfd4ebd0fe58cb9\", @@@",
      "@@@STEP_LOG_LINE@json.output@    \"got_cr_revision_cp\": \"refs/heads/master@{#170242}\", @@@",
      "@@@STEP_LOG_LINE@json.output@    \"got_nacl_revision\": \"d998e125e8253980d76e269b7982aeeefc1b9b50\", @@@",
      "@@@STEP_LOG_LINE@json.output@    \"got_nacl_revision_cp\": \"refs/heads/master@{#274981}\", @@@",
      "@@@STEP_LOG_LINE@json.output@    \"got_revision\": \"801ada225ddc271c132c3a35f03975671d43e399\", @@@",
      "@@@STEP_LOG_LINE@json.output@    \"got_revision_cp\": \"refs/heads/master@{#43426}\", @@@",
      "@@@STEP_LOG_LINE@json.output@    \"got_swarming_client_revision\": \"a0ee5d99f1d4b38ddaa4c759c837980b63b99566\", @@@",
      "@@@STEP_LOG_LINE@json.output@    \"got_swarming_client_revision_cp\": \"refs/heads/master@{#276089}\", @@@",
      "@@@STEP_LOG_LINE@json.output@    \"got_webrtc_revision\": \"0f90628433546e61d9268596da93418c623137f4\", @@@",
      "@@@STEP_LOG_LINE@json.output@    \"got_webrtc_revision_cp\": \"refs/heads/master@{#120644}\"@@@",
      "@@@STEP_LOG_LINE@json.output@  }, @@@",
      "@@@STEP_LOG_LINE@json.output@  \"root\": \"src\", @@@",
      "@@@STEP_LOG_LINE@json.output@  \"step_text\": \"Some step text\"@@@",
      "@@@STEP_LOG_LINE@json.output@}@@@",
      "@@@STEP_LOG_END@json.output@@@",
      "@@@SET_BUILD_PROPERTY@got_cr_revision@\"f27fede2220bcd326aee3e86ddfd4ebd0fe58cb9\"@@@",
      "@@@SET_BUILD_PROPERTY@got_nacl_revision@\"d998e125e8253980d76e269b7982aeeefc1b9b50\"@@@",
      "@@@SET_BUILD_PROPERTY@got_cr_revision_cp@\"refs/heads/master@{#170242}\"@@@",
      "@@@SET_BUILD_PROPERTY@got_swarming_client_revision@\"a0ee5d99f1d4b38ddaa4c759c837980b63b99566\"@@@",
      "@@@SET_BUILD_PROPERTY@got_buildtools_revision_cp@\"refs/heads/master@{#182578}\"@@@",
      "@@@SET_BUILD_PROPERTY@got_webrtc_revision@\"0f90628433546e61d9268596da93418c623137f4\"@@@",
      "@@@SET_BUILD_PROPERTY@got_revision@\"801ada225ddc271c132c3a35f03975671d43e399\"@@@",
      "@@@SET_BUILD_PROPERTY@got_nacl_revision_cp@\"refs/heads/master@{#274981}\"@@@",
      "@@@SET_BUILD_PROPERTY@got_angle_revision@\"fac9503c46405f77757b9a728eb85b8d7bc6080c\"@@@",
      "@@@SET_BUILD_PROPERTY@got_revision_cp@\"refs/heads/master@{#43426}\"@@@",
      "@@@SET_BUILD_PROPERTY@got_swarming_client_revision_cp@\"refs/heads/master@{#276089}\"@@@",
      "@@@SET_BUILD_PROPERTY@got_webrtc_revision_cp@\"refs/heads/master@{#120644}\"@@@",
      "@@@SET_BUILD_PROPERTY@got_angle_revision_cp@\"refs/heads/master@{#297276}\"@@@",
      "@@@SET_BUILD_PROPERTY@got_buildtools_revision@\"f0319a328b2809876916353cb994259692140934\"@@@"
    ]
  },
  {
    "cmd": [],
    "cwd": "[BUILDER_CACHE]\\V8_Blink_Win",
    "name": "ensure_goma"
  },
  {
    "cmd": [
      "python",
      "-u",
      "RECIPE_MODULE[depot_tools::cipd]\\resources\\bootstrap.py",
      "--platform",
      "windows-386",
      "--dest-directory",
      "[SLAVE_BUILD]\\cipd",
      "--json-output",
      "/path/to/tmp/json"
    ],
    "cwd": "[BUILDER_CACHE]\\V8_Blink_Win",
    "name": "ensure_goma.install cipd",
    "~followup_annotations": [
      "@@@STEP_NEST_LEVEL@1@@@",
      "@@@STEP_TEXT@cipd instance_id: 40-chars-fake-of-the-package-instance_id@@@",
      "@@@STEP_LOG_LINE@json.output@{@@@",
      "@@@STEP_LOG_LINE@json.output@  \"executable\": \"[SLAVE_BUILD]\\\\cipd\\\\cipd\", @@@",
      "@@@STEP_LOG_LINE@json.output@  \"instance_id\": \"40-chars-fake-of-the-package-instance_id\"@@@",
      "@@@STEP_LOG_LINE@json.output@}@@@",
      "@@@STEP_LOG_END@json.output@@@"
    ]
  },
  {
    "cmd": [
      "[SLAVE_BUILD]\\cipd\\cipd",
      "ensure",
      "--root",
      "[CACHE]\\cipd\\goma",
      "--list",
      "infra/tools/cloudtail/windows-386 goma_recipe_module\ninfra_internal/goma/client/windows-amd64 release",
      "--json-output",
      "/path/to/tmp/json",
      "--service-account-json",
      "C:\\creds\\service_accounts\\service-account-goma-client.json"
    ],
    "cwd": "[BUILDER_CACHE]\\V8_Blink_Win",
    "name": "ensure_goma.ensure_installed",
    "~followup_annotations": [
      "@@@STEP_NEST_LEVEL@1@@@",
      "@@@STEP_LOG_LINE@json.output@{@@@",
      "@@@STEP_LOG_LINE@json.output@  \"result\": [@@@",
      "@@@STEP_LOG_LINE@json.output@    {@@@",
      "@@@STEP_LOG_LINE@json.output@      \"instance_id\": \"resolved-instance_id-of-goma_recipe_modu\", @@@",
      "@@@STEP_LOG_LINE@json.output@      \"package\": \"infra/tools/cloudtail/windows-386\"@@@",
      "@@@STEP_LOG_LINE@json.output@    }, @@@",
      "@@@STEP_LOG_LINE@json.output@    {@@@",
      "@@@STEP_LOG_LINE@json.output@      \"instance_id\": \"resolved-instance_id-of-release---------\", @@@",
      "@@@STEP_LOG_LINE@json.output@      \"package\": \"infra_internal/goma/client/windows-amd64\"@@@",
      "@@@STEP_LOG_LINE@json.output@    }@@@",
      "@@@STEP_LOG_LINE@json.output@  ]@@@",
      "@@@STEP_LOG_LINE@json.output@}@@@",
      "@@@STEP_LOG_END@json.output@@@"
    ]
  },
  {
    "cmd": [
      "python",
      "-u",
      "RECIPE_PACKAGE_REPO[depot_tools]\\gclient.py",
      "runhooks"
    ],
    "cwd": "[BUILDER_CACHE]\\V8_Blink_Win\\src",
    "env": {
      "GOMA_SERVICE_ACCOUNT_JSON_FILE": "C:\\creds\\service_accounts\\service-account-goma-client.json",
      "GYP_CHROMIUM_NO_ACTION": "1",
      "GYP_DEFINES": "component=static_library fastbuild=1 gomadir='[CACHE]\\cipd\\goma' target_arch=ia32 use_goma=1",
      "PATH": "%(PATH)s;RECIPE_PACKAGE_REPO[depot_tools]"
    },
    "name": "gclient runhooks"
  },
  {
    "cmd": [
      "python",
      "-u",
      "[BUILDER_CACHE]\\V8_Blink_Win\\src\\tools\\mb\\mb.py",
      "gen",
      "-m",
      "client.v8.fyi",
      "-b",
      "V8-Blink Win",
      "--config-file",
      "[BUILDER_CACHE]\\V8_Blink_Win\\src\\tools\\mb\\mb_config.pyl",
      "--goma-dir",
      "[CACHE]\\cipd\\goma",
      "//out/Release"
    ],
    "cwd": "[BUILDER_CACHE]\\V8_Blink_Win\\src",
    "env": {
      "GOMA_SERVICE_ACCOUNT_JSON_FILE": "C:\\creds\\service_accounts\\service-account-goma-client.json"
    },
    "name": "generate_build_files (with patch)"
  },
  {
    "cmd": [
      "python",
      "-u",
      "RECIPE_PACKAGE_REPO[build]\\scripts\\tools\\runit.py",
      "--show-path",
      "python",
      "RECIPE_PACKAGE_REPO[build]\\scripts\\slave\\compile.py",
      "--gsutil-py-path",
      "RECIPE_PACKAGE_REPO[depot_tools]\\gsutil.py",
      "--ninja-path",
      "RECIPE_PACKAGE_REPO[depot_tools]\\ninja.exe",
      "--target",
      "Release",
      "--src-dir",
      "[BUILDER_CACHE]\\V8_Blink_Win\\src",
      "--goma-cache-dir",
      "[GOMA_CACHE]",
      "--buildbot-buildername",
      "V8-Blink Win",
      "--buildbot-mastername",
      "client.v8.fyi",
      "--buildbot-slavename",
      "TestSlavename",
      "--goma-deps-cache-file",
      "V8_Blink_Win.gomadeps",
      "--compiler",
      "goma",
      "--goma-jsonstatus",
      "/path/to/tmp/json",
      "--goma-service-account-json-file",
      "C:\\creds\\service_accounts\\service-account-goma-client.json",
      "--goma-dir",
      "[CACHE]\\cipd\\goma",
      "--",
      "blink_tests"
    ],
    "cwd": "[BUILDER_CACHE]\\V8_Blink_Win",
    "env": {
      "GOMA_SERVICE_ACCOUNT_JSON_FILE": "C:\\creds\\service_accounts\\service-account-goma-client.json"
    },
    "name": "compile (with patch)",
    "~followup_annotations": [
      "@@@STEP_LOG_LINE@json.output (invalid)@null@@@",
      "@@@STEP_LOG_END@json.output (invalid)@@@"
    ]
  },
  {
    "cmd": [
      "python",
      "-u",
      "RECIPE_PACKAGE_REPO[build]\\scripts\\slave\\runtest.py",
      "--target",
      "Release",
      "--factory-properties",
      "{\"blamelist\": [\"cool_dev1337@chromium.org\", \"hax@chromium.org\"], \"buildername\": \"V8-Blink Win\", \"buildnumber\": 571, \"mastername\": \"client.v8.fyi\", \"path_config\": \"kitchen\", \"recipe\": \"blink_downstream\", \"revision\": \"20123\", \"slavename\": \"TestSlavename\", \"workdir\": \"/path/to/workdir/TestSlavename\"}",
      "--build-properties",
      "{\"blamelist\": [\"cool_dev1337@chromium.org\", \"hax@chromium.org\"], \"buildername\": \"V8-Blink Win\", \"buildnumber\": 571, \"mastername\": \"client.v8.fyi\", \"path_config\": \"kitchen\", \"recipe\": \"blink_downstream\", \"revision\": \"20123\", \"slavename\": \"TestSlavename\", \"workdir\": \"/path/to/workdir/TestSlavename\"}",
      "--step-name=webkit_unit_tests",
      "--builder-name=V8-Blink Win",
      "--slave-name=TestSlavename",
      "--build-number=571",
      "webkit_unit_tests.exe"
    ],
    "cwd": "[BUILDER_CACHE]\\V8_Blink_Win",
    "name": "webkit_unit_tests"
  },
  {
    "cmd": [
      "python",
      "-u",
      "[BUILDER_CACHE]\\V8_Blink_Win\\src\\third_party\\WebKit\\Tools\\Scripts\\run-webkit-tests",
      "--target",
      "Release",
      "--results-directory",
      "[SLAVE_BUILD]\\layout-test-results",
      "--build-dir",
      "[BUILDER_CACHE]\\V8_Blink_Win\\src\\out",
      "--json-test-results",
      "/path/to/tmp/json",
      "--test-results-server",
      "test-results.appspot.com",
      "--build-number",
      "571",
      "--builder-name",
      "V8-Blink Win",
      "--step-name",
      "webkit_tests (with patch)",
      "--no-pixel-tests",
      "--additional-expectations",
      "[BUILDER_CACHE]\\V8_Blink_Win\\src\\v8\\tools\\blink_tests\\TestExpectations",
      "--master-name",
      "client.v8.fyi",
      "--debug-rwt-logging"
    ],
    "cwd": "[BUILDER_CACHE]\\V8_Blink_Win",
    "name": "webkit_tests (with patch)",
    "~followup_annotations": [
      "step returned non-zero exit code: 5",
      "@@@STEP_TEXT@<br/>unexpected_flakes:<br/>flake/slow.html<br/>flake/totally-flakey.html<br/>flake/timeout-then-crash.html<br/><br/>unexpected_failures:<br/>bad/totally-bad-probably.html<br/>tricky/totally-maybe-not-awesome.html<br/><br/>Total executed: 9001<br/>@@@",
      "@@@STEP_FAILURE@@@"
    ]
  },
  {
    "cmd": [
      "python",
      "-u",
      "RECIPE_PACKAGE_REPO[build]\\scripts\\slave\\chromium\\archive_layout_test_results.py",
      "--results-dir",
      "[SLAVE_BUILD]\\layout-test-results",
      "--build-dir",
      "[BUILDER_CACHE]\\V8_Blink_Win\\src\\out",
      "--build-number",
      "571",
      "--builder-name",
      "V8-Blink Win",
      "--gs-bucket",
      "gs://chromium-layout-test-archives",
      "--staging-dir",
      "[CACHE]\\chrome_staging"
    ],
    "cwd": "[BUILDER_CACHE]\\V8_Blink_Win",
    "name": "archive_webkit_tests_results",
    "~followup_annotations": [
      "@@@STEP_LINK@layout_test_results@https://storage.googleapis.com/chromium-layout-test-archives/V8-Blink_Win/571/layout-test-results/results.html@@@",
      "@@@STEP_LINK@(zip)@https://storage.googleapis.com/chromium-layout-test-archives/V8-Blink_Win/571/layout-test-results.zip@@@"
    ]
  },
  {
    "cmd": [
      "python",
      "-u",
      "RECIPE_MODULE[depot_tools::bot_update]\\resources\\bot_update.py",
      "--spec",
      "cache_dir = '[GIT_CACHE]'\nsolutions = [{'deps_file': '.DEPS.git', 'managed': True, 'name': 'src', 'url': 'https://chromium.googlesource.com/chromium/src.git'}]",
      "--patch_root",
      "src",
      "--revision_mapping_file",
      "{\"src\": \"got_cr_revision\", \"src/buildtools\": \"got_buildtools_revision\", \"src/native_client\": \"got_nacl_revision\", \"src/third_party/angle\": \"got_angle_revision\", \"src/third_party/webrtc\": \"got_webrtc_revision\", \"src/tools/swarming_client\": \"got_swarming_client_revision\", \"src/v8\": \"got_revision\"}",
      "--git-cache-dir",
      "[GIT_CACHE]",
      "--output_json",
      "/path/to/tmp/json",
      "--revision",
      "src@f27fede2220bcd326aee3e86ddfd4ebd0fe58cb9",
      "--output_manifest"
    ],
    "cwd": "[BUILDER_CACHE]\\V8_Blink_Win",
    "env": {
      "PATH": "%(PATH)s;RECIPE_PACKAGE_REPO[depot_tools]"
    },
    "name": "bot_update (2)",
    "~followup_annotations": [
      "@@@STEP_TEXT@Some step text@@@",
      "@@@STEP_LOG_LINE@json.output@{@@@",
      "@@@STEP_LOG_LINE@json.output@  \"did_run\": true, @@@",
      "@@@STEP_LOG_LINE@json.output@  \"fixed_revisions\": {@@@",
      "@@@STEP_LOG_LINE@json.output@    \"src\": \"f27fede2220bcd326aee3e86ddfd4ebd0fe58cb9\"@@@",
      "@@@STEP_LOG_LINE@json.output@  }, @@@",
      "@@@STEP_LOG_LINE@json.output@  \"manifest\": {@@@",
      "@@@STEP_LOG_LINE@json.output@    \"src\": {@@@",
      "@@@STEP_LOG_LINE@json.output@      \"repository\": \"https://fake.org/src.git\", @@@",
      "@@@STEP_LOG_LINE@json.output@      \"revision\": \"f27fede2220bcd326aee3e86ddfd4ebd0fe58cb9\"@@@",
      "@@@STEP_LOG_LINE@json.output@    }, @@@",
      "@@@STEP_LOG_LINE@json.output@    \"src/buildtools\": {@@@",
      "@@@STEP_LOG_LINE@json.output@      \"repository\": \"https://fake.org/src/buildtools.git\", @@@",
      "@@@STEP_LOG_LINE@json.output@      \"revision\": \"f0319a328b2809876916353cb994259692140934\"@@@",
      "@@@STEP_LOG_LINE@json.output@    }, @@@",
      "@@@STEP_LOG_LINE@json.output@    \"src/native_client\": {@@@",
      "@@@STEP_LOG_LINE@json.output@      \"repository\": \"https://fake.org/src/native_client.git\", @@@",
      "@@@STEP_LOG_LINE@json.output@      \"revision\": \"d998e125e8253980d76e269b7982aeeefc1b9b50\"@@@",
      "@@@STEP_LOG_LINE@json.output@    }, @@@",
      "@@@STEP_LOG_LINE@json.output@    \"src/third_party/angle\": {@@@",
      "@@@STEP_LOG_LINE@json.output@      \"repository\": \"https://fake.org/src/third_party/angle.git\", @@@",
      "@@@STEP_LOG_LINE@json.output@      \"revision\": \"fac9503c46405f77757b9a728eb85b8d7bc6080c\"@@@",
      "@@@STEP_LOG_LINE@json.output@    }, @@@",
      "@@@STEP_LOG_LINE@json.output@    \"src/third_party/webrtc\": {@@@",
      "@@@STEP_LOG_LINE@json.output@      \"repository\": \"https://fake.org/src/third_party/webrtc.git\", @@@",
      "@@@STEP_LOG_LINE@json.output@      \"revision\": \"0f90628433546e61d9268596da93418c623137f4\"@@@",
      "@@@STEP_LOG_LINE@json.output@    }, @@@",
      "@@@STEP_LOG_LINE@json.output@    \"src/tools/swarming_client\": {@@@",
      "@@@STEP_LOG_LINE@json.output@      \"repository\": \"https://fake.org/src/tools/swarming_client.git\", @@@",
      "@@@STEP_LOG_LINE@json.output@      \"revision\": \"a0ee5d99f1d4b38ddaa4c759c837980b63b99566\"@@@",
      "@@@STEP_LOG_LINE@json.output@    }, @@@",
      "@@@STEP_LOG_LINE@json.output@    \"src/v8\": {@@@",
      "@@@STEP_LOG_LINE@json.output@      \"repository\": \"https://fake.org/src/v8.git\", @@@",
      "@@@STEP_LOG_LINE@json.output@      \"revision\": \"801ada225ddc271c132c3a35f03975671d43e399\"@@@",
      "@@@STEP_LOG_LINE@json.output@    }@@@",
      "@@@STEP_LOG_LINE@json.output@  }, @@@",
      "@@@STEP_LOG_LINE@json.output@  \"patch_failure\": false, @@@",
      "@@@STEP_LOG_LINE@json.output@  \"patch_root\": \"src\", @@@",
      "@@@STEP_LOG_LINE@json.output@  \"properties\": {@@@",
      "@@@STEP_LOG_LINE@json.output@    \"got_angle_revision\": \"fac9503c46405f77757b9a728eb85b8d7bc6080c\", @@@",
      "@@@STEP_LOG_LINE@json.output@    \"got_angle_revision_cp\": \"refs/heads/master@{#297276}\", @@@",
      "@@@STEP_LOG_LINE@json.output@    \"got_buildtools_revision\": \"f0319a328b2809876916353cb994259692140934\", @@@",
      "@@@STEP_LOG_LINE@json.output@    \"got_buildtools_revision_cp\": \"refs/heads/master@{#182578}\", @@@",
      "@@@STEP_LOG_LINE@json.output@    \"got_cr_revision\": \"f27fede2220bcd326aee3e86ddfd4ebd0fe58cb9\", @@@",
      "@@@STEP_LOG_LINE@json.output@    \"got_cr_revision_cp\": \"refs/heads/master@{#170242}\", @@@",
      "@@@STEP_LOG_LINE@json.output@    \"got_nacl_revision\": \"d998e125e8253980d76e269b7982aeeefc1b9b50\", @@@",
      "@@@STEP_LOG_LINE@json.output@    \"got_nacl_revision_cp\": \"refs/heads/master@{#274981}\", @@@",
      "@@@STEP_LOG_LINE@json.output@    \"got_revision\": \"801ada225ddc271c132c3a35f03975671d43e399\", @@@",
      "@@@STEP_LOG_LINE@json.output@    \"got_revision_cp\": \"refs/heads/master@{#43426}\", @@@",
      "@@@STEP_LOG_LINE@json.output@    \"got_swarming_client_revision\": \"a0ee5d99f1d4b38ddaa4c759c837980b63b99566\", @@@",
      "@@@STEP_LOG_LINE@json.output@    \"got_swarming_client_revision_cp\": \"refs/heads/master@{#276089}\", @@@",
      "@@@STEP_LOG_LINE@json.output@    \"got_webrtc_revision\": \"0f90628433546e61d9268596da93418c623137f4\", @@@",
      "@@@STEP_LOG_LINE@json.output@    \"got_webrtc_revision_cp\": \"refs/heads/master@{#120644}\"@@@",
      "@@@STEP_LOG_LINE@json.output@  }, @@@",
      "@@@STEP_LOG_LINE@json.output@  \"root\": \"src\", @@@",
      "@@@STEP_LOG_LINE@json.output@  \"step_text\": \"Some step text\"@@@",
      "@@@STEP_LOG_LINE@json.output@}@@@",
      "@@@STEP_LOG_END@json.output@@@"
    ]
  },
  {
    "cmd": [
      "python",
      "-u",
      "[BUILDER_CACHE]\\V8_Blink_Win\\src\\tools\\mb\\mb.py",
      "gen",
      "-m",
      "client.v8.fyi",
      "-b",
      "V8-Blink Win",
      "--config-file",
      "[BUILDER_CACHE]\\V8_Blink_Win\\src\\tools\\mb\\mb_config.pyl",
      "--goma-dir",
      "[CACHE]\\cipd\\goma",
      "//out/Release"
    ],
    "cwd": "[BUILDER_CACHE]\\V8_Blink_Win\\src",
    "env": {
      "GOMA_SERVICE_ACCOUNT_JSON_FILE": "C:\\creds\\service_accounts\\service-account-goma-client.json"
    },
    "name": "generate_build_files (without patch)"
  },
  {
    "cmd": [
      "python",
      "-u",
      "RECIPE_PACKAGE_REPO[build]\\scripts\\tools\\runit.py",
      "--show-path",
      "python",
      "RECIPE_PACKAGE_REPO[build]\\scripts\\slave\\compile.py",
      "--gsutil-py-path",
      "RECIPE_PACKAGE_REPO[depot_tools]\\gsutil.py",
      "--ninja-path",
      "RECIPE_PACKAGE_REPO[depot_tools]\\ninja.exe",
      "--target",
      "Release",
      "--src-dir",
      "[BUILDER_CACHE]\\V8_Blink_Win\\src",
      "--goma-cache-dir",
      "[GOMA_CACHE]",
      "--buildbot-buildername",
      "V8-Blink Win",
      "--buildbot-mastername",
      "client.v8.fyi",
      "--buildbot-slavename",
      "TestSlavename",
      "--goma-deps-cache-file",
      "V8_Blink_Win.gomadeps",
      "--compiler",
      "goma",
      "--goma-jsonstatus",
      "/path/to/tmp/json",
      "--goma-service-account-json-file",
      "C:\\creds\\service_accounts\\service-account-goma-client.json",
      "--goma-dir",
      "[CACHE]\\cipd\\goma",
      "--",
      "blink_tests"
    ],
    "cwd": "[BUILDER_CACHE]\\V8_Blink_Win",
    "env": {
      "GOMA_SERVICE_ACCOUNT_JSON_FILE": "C:\\creds\\service_accounts\\service-account-goma-client.json"
    },
    "name": "compile (without patch)",
    "~followup_annotations": [
      "@@@STEP_LOG_LINE@json.output (invalid)@null@@@",
      "@@@STEP_LOG_END@json.output (invalid)@@@"
    ]
  },
  {
    "cmd": [
      "python",
      "-u",
      "[BUILDER_CACHE]\\V8_Blink_Win\\src\\third_party\\WebKit\\Tools\\Scripts\\run-webkit-tests",
      "--target",
      "Release",
      "--results-directory",
      "[SLAVE_BUILD]\\layout-test-results",
      "--build-dir",
      "[BUILDER_CACHE]\\V8_Blink_Win\\src\\out",
      "--json-test-results",
      "/path/to/tmp/json",
      "--test-results-server",
      "test-results.appspot.com",
      "--build-number",
      "571",
      "--builder-name",
      "V8-Blink Win",
      "--step-name",
      "webkit_tests (without patch)",
      "--no-pixel-tests",
      "--additional-expectations",
      "[BUILDER_CACHE]\\V8_Blink_Win\\src\\v8\\tools\\blink_tests\\TestExpectations",
      "--test-list",
      "bad/totally-bad-probably.html\ntricky/totally-maybe-not-awesome.html",
      "--skipped",
      "always",
      "--master-name",
      "client.v8.fyi",
      "--debug-rwt-logging"
    ],
    "cwd": "[BUILDER_CACHE]\\V8_Blink_Win",
    "name": "webkit_tests (without patch)",
    "~followup_annotations": [
      "step returned non-zero exit code: 5",
      "@@@STEP_TEXT@<br/>unexpected_flakes:<br/>flake/slow.html<br/>flake/totally-flakey.html<br/>flake/timeout-then-crash.html<br/><br/>unexpected_failures:<br/>bad/totally-bad-probably.html<br/>tricky/totally-maybe-not-awesome.html<br/><br/>Total executed: 9001<br/>@@@",
      "@@@STEP_FAILURE@@@"
    ]
  },
  {
    "cmd": [
      "python",
      "-u",
      "import sys; sys.exit(0)"
    ],
    "cwd": "[BUILDER_CACHE]\\V8_Blink_Win",
    "name": "webkit_tests (retry summary)",
    "~followup_annotations": [
      "@@@STEP_TEXT@<br/>ignored:<br/>bad/totally-bad-probably.html<br/>tricky/totally-maybe-not-awesome.html<br/>@@@",
      "@@@STEP_WARNINGS@@@"
    ]
  },
  {
    "cmd": [
      "python",
      "-u",
      "RECIPE_PACKAGE_REPO[build]\\scripts\\slave\\chromium\\archive_layout_test_retry_summary.py",
      "--retry-summary-json",
      "{\"failures\": [], \"ignored\": [\"bad/totally-bad-probably.html\", \"tricky/totally-maybe-not-awesome.html\"]}",
      "--build-number",
      "571",
      "--builder-name",
      "V8-Blink Win",
      "--gs-bucket",
      "gs://chromium-layout-test-archives"
    ],
    "cwd": "[BUILDER_CACHE]\\V8_Blink_Win",
    "name": "archive_retry_summary"
  },
  {
    "name": "$result",
    "recipe_result": null,
    "status_code": 0
  }
]